…
```
  |                                                                                                                                                                                                                          |                                                                                                                                                                                                                  |   0%  |                                                                                                                                                                                                                          |..................................................................................................................................................................................................................| 100%
  ordinary text without R code
```

```r
CL_LAPOP_2014 %>% select(mil10a)
```

```
# A tibble: 1,571 × 1
   mil10a                
   <dbl+lbl>             
 1 NA(a) [No Sabe]       
 2     3 [Poco confiable]
 3     4 [Nada confiable]
 4 NA(a) [No Sabe]       
 5     2 [Algo confiable]
 6 NA(a) [No Sabe]       
 7     4 [Nada confiable]
 8     2 [Algo confiable]
 9     1 [Muy confiable] 
10     3 [Poco confiable]
# … with 1,561 more rows
```
…
```
  |                                                                                                                                                                                                                          |                                                                                                                                                                                                                  |   0%  |                                                                                                                                                                                                                          |..................................................................................................................................................................................................................| 100%
  ordinary text without R code
```

```r
CL_LAPOP_2018 %>%
  select(mil10a)
```

```
# A tibble: 1,625 × 1
   mil10a                      
   <dbl+lbl>                   
 1 NA(a) [Don't Know]          
 2     3 [Not Very Trustworthy]
 3 NA(a) [Don't Know]          
 4 NA(a) [Don't Know]          
 5 NA(a) [Don't Know]          
 6     2 [Somewhat Trustworthy]
 7 NA(a) [Don't Know]          
 8     3 [Not Very Trustworthy]
 9 NA(a) [Don't Know]          
10     2 [Somewhat Trustworthy]
# … with 1,615 more rows
```
…
```
  |                                                                                                                                                                                                                          |                                                                                                                                                                                                                  |   0%  |                                                                                                                                                                                                                          |..................................................................................................................................................................................................................| 100%
  ordinary text without R code
```

```r
CL_LAPOP_2019 %>%
  select(mil10a)
```

```
# A tibble: 1,638 × 1
   mil10a           
   <dbl+lbl>        
 1 NA(c) [No Aplica]
 2 NA(c) [No Aplica]
 3 NA(a) [No sabe]  
 4 NA(a) [No sabe]  
 5 NA(a) [No sabe]  
 6 NA(c) [No Aplica]
 7 NA(c) [No Aplica]
 8 NA(c) [No Aplica]
 9 NA(c) [No Aplica]
10 NA(a) [No sabe]  
# … with 1,628 more rows
```
…
<img src="figure/gráficos descriptivos 2019-1.png" alt="plot of chunk gráficos descriptivos 2019" width="75%" style="display: block; margin: auto;" />

**Análisis descriptivo 2021:**


```r
knitr::opts_chunk$set(echo = TRUE)
CL_LAPOP_2021 %>%
  select(mil10a)
```

```
# A tibble: 1,571 × 1
   mil10a                
   <dbl+lbl>             
 1 NA(c) [N/A]           
 2 NA(c) [N/A]           
 3     2 [Algo confiable]
 4     3 [Poco confiable]
 5 NA(c) [N/A]           
 6 NA(c) [N/A]           
 7 NA(c) [N/A]           
 8 NA(c) [N/A]           
 9 NA(c) [N/A]           
10 NA(a) [DK]            
# … with 1,561 more rows
```
…
